   177.807558032351       5750.42692795847       56154098.7049033       50.0000000000000                          9
   177.086116231564       5754.22190866785       55701734.0989170       50.0000000000000                          9
   176.366401918576       5757.99437315481       55249149.0494861       50.0000000000000                          9
   175.648361448563       5761.74444876741       54796344.8034464       50.0000000000000                          9
   174.931915102211       5765.47227413145       54343322.7180396       50.0000000000000                          9
   174.216952394599       5769.17799708420       53890084.2406840       50.0000000000000                          9
   173.503319797941       5772.86177043634       53436630.8674837       50.0000000000000                          9
   172.790786631774       5776.52373909813       52982964.0171928       50.0000000000000                          9
   172.078935070302       5780.16399991920       52529084.6380476       50.0000000000000                          9
   171.366745485933       5783.78248585404       52074992.0737521       50.0000000000000                          9
   170.650865099141       5787.37867432973       51620681.2084195       50.0000000000000                          9
   169.917985143683       5790.95104976067       51166137.2046751       50.0000000000000                          9
   169.110161983100       5794.49720135565       50711336.4614532       50.0000000000000                          9
   167.974411363505       5798.09482466611       50257039.6214469       50.0000000000000                          8
   166.533981538654       5801.60020290629       49801839.6859228       50.0000000000000                          8
   165.126736142683       5805.05772325783       49346171.2009420       50.0000000000000                          8
   163.733745272898       5808.46604783660       48890021.0692338       50.0000000000000                          8
   162.348824923551       5811.82517555876       48433389.2805219       50.0000000000000                          8
   160.969425705554       5815.13532430153       47976277.9680710       50.0000000000000                          8
   159.594345763127       5818.39676884004       47518689.8221384       50.0000000000000                          8
   158.223070361608       5821.60984431806       47060628.1239713       50.0000000000000                          8
   156.855614580618       5824.77500023541       46602097.2743514       50.0000000000000                          8
   155.492578712819       5827.89292227067       46143103.9862471       50.0000000000000                          8
   154.135168421542       5830.96477336239       45683659.6450118       50.0000000000000                          8
   152.673127068189       5833.97720494523       45223633.5683859       50.0000000000000                          7
   151.112355962808       5836.92718734241       44762996.0940758       50.0000000000000                          7
   149.563815273034       5839.82342584739       44301832.4448529       50.0000000000000                          7
   148.026176993044       5842.66558523532       43840139.3386508       50.0000000000000                          7
   146.498043467644       5845.45403080836       43377920.3516504       50.0000000000000                          7
   144.977899282496       5848.18930439249       42915180.7882745       50.0000000000000                          7
   143.464072462735       5850.87193047005       42451925.7832115       50.0000000000000                          7
   141.954739139716       5853.50235471740       41988159.6996959       50.0000000000000                          7
   140.447906284027       5856.08092328315       41523885.9266417       50.0000000000000                          7
   138.941276702439       5858.60787766647       41059106.8285006       50.0000000000000                          7
   137.431726707967       5861.08339725938       40593824.1617507       50.0000000000000                          7
   135.913429729013       5863.50791754092       40128042.1900113       50.0000000000000                          7
   134.452185205388       5865.83501699793       39661306.4571313       50.0000000000000                          6
   133.065031325611       5868.05205126585       39193493.1932850       50.0000000000000                          6
   131.697663438198       5870.19741860481       38724978.2998456       50.0000000000000                          6
   130.336791692830       5872.29086214546       38255955.0564319       50.0000000000000                          6
   128.979602201579       5874.33803732981       37786478.8284015       50.0000000000000                          6
   127.626838145032       5876.34303695842       37316589.6832486       50.0000000000000                          6
   126.282736572114       5878.31374609265       36846364.8137883       50.0000000000000                          6
   124.954047376716       5880.26340358851       36375933.8263622       50.0000000000000                          6
   123.711778612571       5882.24476707201       35905813.2100927       50.0000000000000                         11
   122.540230138925       5884.24034130056       35435831.6843751       50.0000000000000                         11
   121.291414174535       5886.16578266525       34965163.5445645       50.0000000000000                          6
   119.951275831435       5888.00062876568       34493608.4482845       50.0000000000000                          6
   118.599111353177       5889.78692335607       34021578.0164172       50.0000000000000                          6
   117.241334184569       5891.53267564907       33549150.6595750       50.0000000000000                          6
   116.054270093143       5893.24229659737       33076369.5622761       50.0000000000000                          5
   115.042994402566       5894.92237222571       32603299.2041700       50.0000000000000                          5
   114.040162343020       5896.57656625794       32129975.4545214       50.0000000000000                          5
   113.044809955151       5898.20549176395       31656404.3155150       50.0000000000000                          5
   112.057819938277       5899.80956638652       31182589.8760482       50.0000000000000                          5
   111.089798201001       5901.38938733889       30708537.9830940       50.0000000000000                          5
   109.891660023663       5902.94176816549       30234217.4401232       50.0000000000000                          4
   108.415461641756       5904.45824101987       29759545.3436280       50.0000000000000                          4
   106.869858183325       5905.93249657109       29284459.9227762       50.0000000000000                          4
   105.314242293902       5907.36326370940       28808948.7330130       50.0000000000000                          4
   103.761148291140       5908.75107241165       28333016.9630706       50.0000000000000                          4
   102.212735721250       5910.09659584843       27856671.2035904       50.0000000000000                          4
   100.668999398432       5911.40043523986       27379917.3407838       50.0000000000000                          4
   99.1298817644845       5912.66312345873       26902760.5917110       50.0000000000000                          4
   97.5961552173432       5913.88516620485       26425205.9073932       50.0000000000000                          4
   96.0703878022059       5915.06711613460       25947258.6985683       50.0000000000000                          4
   94.5586298095491       5916.20972981811       25468926.3723603       50.0000000000000                          4
   93.0729002967708       5917.31431534481       24990221.7354690       50.0000000000000                          4
   91.0495706392076       5918.37358139287       24511073.4031226       50.0000000000000                          3
   88.4368659459238       5919.37022052936       24031311.9289540       50.0000000000000                          3
   85.7723497931776       5920.29443832753       23550841.4217381       50.0000000000000                          3
   83.0795078316962       5921.14586111724       23069658.2231106       50.0000000000000                          3
   80.3740029630906       5921.92540303988       22587771.2828760       50.0000000000000                          3
   77.6633237241642       5922.63450649905       22105194.7227174       50.0000000000000                          3
   74.9513988652397       5923.27477774422       21621944.2684249       50.0000000000000                          3
   72.2415637049090       5923.84790950654       21138036.4924709       50.0000000000000                          3
   69.5382564575633       5924.35574224258       20653489.4136109       50.0000000000000                          3
   66.8472127907058       5924.80040036544       20168323.8306409       50.0000000000000                          3
   64.1709939706135       5925.18434304213       19682563.8197350       50.0000000000000                          3
   62.0441448785209       5925.51708142266       19196302.4986642       50.0000000000000                          2
   60.4511470878259       5925.81414832475       18709691.9395744       50.0000000000000                          2
   58.8448796959832       5926.08286950885       18222803.8643932       50.0000000000000                          2
   57.2290936192686       5926.32339580028       17735639.7497290       50.0000000000000                          2
   55.6068877833985       5926.53613668051       17248203.6045270       50.0000000000000                          2
   53.9801918351497       5926.72165602640       16760500.9493196       50.0000000000000                          2
   52.3500462593549       5926.88060146960       16272538.1246290       50.0000000000000                          2
   50.7169190119731       5927.01366731284       15784321.9279041       50.0000000000000                          2
   49.0809208147752       5927.12157670909       15295859.4390483       50.0000000000000                          2
   47.4419342791522       5927.20507301222       14807157.9357404       50.0000000000000                          2
   45.7996991147303       5927.26491488137       14318224.8455035       50.0000000000000                          2
   44.1539031851890       5927.30187306767       13829067.7142483       50.0000000000000                          2
   42.5043422674845       5927.31673007734       13339694.2029751       50.0000000000000                          2
   40.8512143383638       5927.31028843219       12850112.1686490       50.0000000000000                          2
   39.4308033649647       5927.28569413187       12360352.4117885       50.0000000000000                          1
   38.2445251796698       5927.24828780648       11870467.2191897       50.0000000000000                          1
   37.0583057670444       5927.20096071690       11380484.8973846       50.0000000000000                          1
   35.8729053766352       5927.14431247539       10890411.3167855       50.0000000000000                          1
   34.6885029923311       5927.07897356974       10400252.6500882       50.0000000000000                          1
   33.5050022852668       5927.00558668642       9910015.18941973       50.0000000000000                          1
   32.3222387303147       5926.92480321610       9419705.31212806       50.0000000000000                          1
   31.1400728930485       5926.83728611179       8929329.50876465       50.0000000000000                          1
   29.9584181159991       5926.74371394465       8438894.42279404       50.0000000000000                          1
   28.7772400908634       5926.64478434195       7948406.88425250       50.0000000000000                          1
   27.5965475305871       5926.54121651508       7457873.93449904       50.0000000000000                          1
   26.4163817937379       5926.43375305315       6967302.84377668       50.0000000000000                          1
   25.2368079704779       5926.32316121802       6476701.12389100       50.0000000000000                          1
   24.0579078437269       5926.21023392738       5986076.53783590       50.0000000000000                          1
   22.8797744763968       5926.09579055810       5495437.10765939       50.0000000000000                          1
   21.7025080571023       5925.98067766227       5004791.12147395       50.0000000000000                          1
   20.5262126891807       5925.86576966401       4514147.14027955       50.0000000000000                          1
   19.3509938936392       5925.75196958991       4023514.00511519       50.0000000000000                          1
   18.1769566734275       5925.64020987403       3532900.84494044       50.0000000000000                          1
   17.0042040456233       5925.53145326758       3042317.08554216       50.0000000000000                          1
   15.8328359906082       5925.42669387213       2551772.45964943       50.0000000000000                          1
   14.6629487949521       5925.32695830321       2061277.01832641       50.0000000000000                          1
   13.4946347782820       5925.23330698083       1570841.14360684       50.0000000000000                          1
   12.3279823938242       5925.14683553570       1080475.56226061       50.0000000000000                          1
   11.1630766780934       5925.06867631785       590191.360564884       50.0000000000000                          1
   10.0000000000000       5925.00000000000       100000.000000000       50.0000000000000                          1
